#!/usr/bin/perl

# @file $XDG_CONFIG_HOME/alsi/alsi.output
#
# Controls output metrics for alsi.
#
# @author J. Nolan Faught <nagefire.dev@gmail.com>
# @date 6 Apr 2024
[
    {OS        => '%sOS:%s %s'},          # Operating system
    {HOSTNAME  => '%sHostname:%s %s'},    # Hostname
    {KERNEL    => '%sKernel:%s %s'},      # Kernel version
    {UPTIME    => '%sUptime:%s %s'},      # Uptime

    {WM_DE     => '%s%s:%s %s'},          # Window Manager or Desktop Environment
    {SHELL     => '%sShell:%s %s'},       # Shell
    {PACKAGES  => '%sPackages:%s %s'},    # Number of installed packages

    {CPU        => '%sCPU:%s %s'},                # CPU name
    {RAM        => '%sRAM:%s %s'},                # RAM usage
    {SWAP       => '%sSWAP:%s %s'},               # SWAP usage

    {PARTITIONS => undef},                        # Partitions goes here
]
